<svg xmlns="http://www.w3.org/2000/svg" viewBox="0 0 800.49 800.54">
  <path d="M800.49 800H.49V0h800zM431.49.51L400 48.52 368.53.51l-23.59 52.34-38.6-42.48-15.11 55.37-44.77-35.92-6.26 57.06-49.84-28.47 2.74 57.33-53.68-20.33 11.68 56.21-56.2-11.68 20.33 53.68-57.34-2.75 28.48 49.84L29.31 247l35.92 44.77-55.38 15.09 42.49 38.6L0 369l48 31.49L0 432l52.34 23.58L9.85 494.2l55.38 15.1-35.92 44.78 57.06 6.26-28.48 49.84 57.34-2.75-20.33 53.68 56.2-11.67-11.68 56.2 53.68-20.33-2.74 57.34 49.84-28.48 6.26 57.06 44.77-35.92 15.11 55.38 38.6-42.49 23.59 52.34 31.48-48 31.48 48 23.59-52.34 38.6 42.49 15.11-55.38 44.77 35.92 6.26-57.06 49.84 28.48-2.74-57.34 53.68 20.33-11.68-56.2 56.2 11.67-20.33-53.68 57.34 2.75-28.48-49.84 57.07-6.26-35.93-44.78 55.38-15.1-42.48-38.61L800 432l-48-31.48L800 369l-52.33-23.58 42.48-38.6-55.38-15.11L770.72 247l-57.07-6.27 28.48-49.84-57.34 2.75 20.33-53.68-56.2 11.68 11.68-56.23-53.68 20.33 2.74-57.33-49.84 28.47-6.26-57.06-44.77 35.92-15.11-55.37-38.6 42.48z" fill="#fff" data-name="Layer 2"/>
</svg>
